…
7. We are interested in two groups; small and large mammals. Let's define small as less than or equal to 1kg body weight and large as greater than or equal to 200kg body weight. Make two new dataframes (large and small) based on these parameters.



```r
large_mammals<-filter(msleep,bodywt<=200)
large_mammals
```

```
## # A tibble: 76 × 11
##    name  genus vore  order conse…¹ sleep…² sleep…³ sleep…⁴ awake  brainwt bodywt
##    <chr> <chr> <chr> <chr> <chr>     <dbl>   <dbl>   <dbl> <dbl>    <dbl>  <dbl>
##  1 Chee… Acin… carni Carn… lc         12.1    NA    NA      11.9 NA       50    
##  2 Owl … Aotus omni  Prim… <NA>       17       1.8  NA       7    0.0155   0.48 
##  3 Moun… Aplo… herbi Rode… nt         14.4     2.4  NA       9.6 NA        1.35 
##  4 Grea… Blar… omni  Sori… lc         14.9     2.3   0.133   9.1  0.00029  0.019
##  5 Thre… Brad… herbi Pilo… <NA>       14.4     2.2   0.767   9.6 NA        3.85 
##  6 Nort… Call… carni Carn… vu          8.7     1.4   0.383  15.3 NA       20.5  
##  7 Vesp… Calo… <NA>  Rode… <NA>        7      NA    NA      17   NA        0.045
##  8 Dog   Canis carni Carn… domest…    10.1     2.9   0.333  13.9  0.07    14    
##  9 Roe … Capr… herbi Arti… lc          3      NA    NA      21    0.0982  14.8  
## 10 Goat  Capri herbi Arti… lc          5.3     0.6  NA      18.7  0.115   33.5  
## # … with 66 more rows, and abbreviated variable names ¹​conservation,
## #   ²​sleep_total, ³​sleep_rem, ⁴​sleep_cycle
```
…
