…
**7. Which countries have had the largest population growth since 1952?**

```r
gapminder %>% 
  select(country, year, pop) %>% 
  filter(year==1952 | year==2007) %>% 
  pivot_wider(names_from = year,
              values_from = pop) %>% 
  mutate(delta= 2007-1952) %>% 
  arrange(desc(delta))
```

```
## # A tibble: 142 × 4
##    country       `1952`    `2007` delta
##    <fct>          <int>     <int> <dbl>
##  1 Afghanistan  8425333  31889923    55
##  2 Albania      1282697   3600523    55
##  3 Algeria      9279525  33333216    55
##  4 Angola       4232095  12420476    55
##  5 Argentina   17876956  40301927    55
##  6 Australia    8691212  20434176    55
##  7 Austria      6927772   8199783    55
##  8 Bahrain       120447    708573    55
##  9 Bangladesh  46886859 150448339    55
## 10 Belgium      8730405  10392226    55
## # … with 132 more rows
```
…
