…
9. (4 points) When is the best month to have surgery? Make a chart that shows the 30-day mortality and complications for the patients by month. `mort30` is the variable that shows whether or not a patient survived 30 days post-operation.

```r
surgery %>% 
  group_by(month) %>% 
  count(mort30, sort=T) %>% 
  arrange(desc(month))
```

```
## # A tibble: 24 × 3
## # Groups:   month [12]
##    month mort30     n
##    <chr> <chr>  <int>
##  1 Sep   No      3192
##  2 Sep   Yes       16
##  3 Oct   No      2681
##  4 Oct   Yes        8
##  5 Nov   No      2539
##  6 Nov   Yes        5
##  7 May   No      2644
##  8 May   Yes       10
##  9 Mar   No      2685
## 10 Mar   Yes       12
## # … with 14 more rows
```
…
